<?xml version="1.0" standalone="no"?>
<!DOCTYPE svg PUBLIC "-//W3C//DTD SVG 1.1//EN" "http://www.w3.org/Graphics/SVG/1.1/DTD/svg11.dtd" >
<svg xmlns="http://www.w3.org/2000/svg">
<metadata>Generated by IcoMoon</metadata>
<defs>
<font id="icomoon" horiz-adv-x="1024">
<font-face units-per-em="1024" ascent="960" descent="-64" />
<missing-glyph horiz-adv-x="1024" />
<glyph unicode="&#x20;" horiz-adv-x="512" d="" />
<glyph unicode="&#xe900;" glyph-name="bank" horiz-adv-x="1097" d="M548.571 950.857l548.571-219.429v-73.143h-73.143q0-14.857-11.714-25.714t-27.714-10.857h-872q-16 0-27.714 10.857t-11.714 25.714h-73.143v73.143zM146.286 585.143h146.286v-438.857h73.143v438.857h146.286v-438.857h73.143v438.857h146.286v-438.857h73.143v438.857h146.286v-438.857h33.714q16 0 27.714-10.857t11.714-25.714v-36.571h-950.857v36.571q0 14.857 11.714 25.714t27.714 10.857h33.714v438.857zM1057.714 36.571q16 0 27.714-10.857t11.714-25.714v-73.143h-1097.143v73.143q0 14.857 11.714 25.714t27.714 10.857h1018.286z" />
<glyph unicode="&#xe901;" glyph-name="school" d="M512 810.667l470-256v-342h-86v296l-384-210-470 256zM214 376.667l298-164 298 164v-172l-298-162-298 162v172z" />
<glyph unicode="&#xe902;" glyph-name="lamp" d="M562.24 380.224c-51.136 41.792-83.776 105.344-83.776 176.544 0 35.776 8.96 69.184 23.648 99.328l-35.136 35.104-213.44-213.472c39.68-31.232 35.68-61.76-10.752-91.52l285.152-285.12h139.744c17.984 0 32.576-14.592 32.576-32.576v-32.576h-152.576l-0.352-0.352-0.352 0.352h-237.376v32.544c0 17.984 14.592 32.576 32.576 32.576h139.744l-268.992 268.96c-53.152-22.784-79.392-0.768-78.272 66.88 1.216 71.968 31.712 91.168 90.848 58.784l218.528 218.528-21.632 21.6c-12.704 12.672-12.704 33.312 0 46.016l69.056 69.056c12.704 12.704 33.344 12.704 46.048 0l83.2-83.264c26.496 10.784 55.328 16.96 85.696 16.96 74.944 0 141.504-32.16 183.008-88.064 1.408-0.352-325.984-316.8-327.168-316.288zM814.176 583.872c0 0 54.944-69.152 0-124.096s-123.424 0.672-123.424 0.672l123.424 123.424z" />
<glyph unicode="&#xe903;" glyph-name="files" d="M213.333 938.667v-128h-128v-896h725.333v128h128v896h-725.333zM725.333-0h-554.667v725.333h42.667v-682.667h512v-42.667zM853.333 128h-554.667v725.333h554.667v-725.333zM640 725.334h-256v-85.333h256v85.333zM768 597.334h-384v-42.667h384v42.667zM768 512h-384v-42.667h384v42.667zM768 426.667h-384v-42.667h384v42.667zM512 341.334h-128v-42.667h128v42.667z" />
<glyph unicode="&#xe904;" glyph-name="dashboard" d="M554 810.667h342v-256h-342v256zM554 42.667v426h342v-426h-342zM128 42.667v256h342v-256h-342zM128 384.667v426h342v-426h-342z" />
<glyph unicode="&#xe906;" glyph-name="pencil2" d="M384 320l128 64 448 448-64 64-448-448-64-128zM289.3 92.902c-31.632 66.728-65.666 100.762-132.396 132.394l99.096 272.792 128 77.912 384 384h-192l-384-384-192-640 640 192 384 384v192l-384-384-77.912-128z" />
<glyph unicode="&#xe91f;" glyph-name="book" d="M896 832v-832h-672c-53.026 0-96 42.98-96 96s42.974 96 96 96h608v768h-640c-70.398 0-128-57.6-128-128v-768c0-70.4 57.602-128 128-128h768v896h-64zM224.056 128v0c-0.018-0.002-0.038 0-0.056 0-17.672 0-32-14.326-32-32s14.328-32 32-32c0.018 0 0.038 0.002 0.056 0.002v-0.002h607.89v64h-607.89z" />
<glyph unicode="&#xe920;" glyph-name="books" horiz-adv-x="1152" d="M224 832h-192c-17.6 0-32-14.4-32-32v-704c0-17.6 14.4-32 32-32h192c17.6 0 32 14.4 32 32v704c0 17.6-14.4 32-32 32zM192 640h-128v64h128v-64zM544 832h-192c-17.6 0-32-14.4-32-32v-704c0-17.6 14.4-32 32-32h192c17.6 0 32 14.4 32 32v704c0 17.6-14.4 32-32 32zM512 640h-128v64h128v-64zM765.088 782.52l-171.464-86.394c-15.716-7.918-22.096-27.258-14.178-42.976l287.978-571.548c7.918-15.718 27.258-22.098 42.976-14.178l171.464 86.392c15.716 7.92 22.096 27.26 14.178 42.974l-287.978 571.55c-7.92 15.718-27.26 22.1-42.976 14.18zM928 96c0-17.673-14.327-32-32-32s-32 14.327-32 32c0 17.673 14.327 32 32 32s32-14.327 32-32z" />
<glyph unicode="&#xe924;" glyph-name="file-empty" d="M917.806 730.924c-22.212 30.292-53.174 65.7-87.178 99.704s-69.412 64.964-99.704 87.178c-51.574 37.82-76.592 42.194-90.924 42.194h-496c-44.112 0-80-35.888-80-80v-864c0-44.112 35.888-80 80-80h736c44.112 0 80 35.888 80 80v624c0 14.332-4.372 39.35-42.194 90.924zM785.374 785.374c30.7-30.7 54.8-58.398 72.58-81.374h-153.954v153.946c22.984-17.78 50.678-41.878 81.374-72.572zM896 16c0-8.672-7.328-16-16-16h-736c-8.672 0-16 7.328-16 16v864c0 8.672 7.328 16 16 16 0 0 495.956 0.002 496 0v-224c0-17.672 14.326-32 32-32h224v-624z" />
<glyph unicode="&#xe926;" glyph-name="file-text2" d="M917.806 730.924c-22.212 30.292-53.174 65.7-87.178 99.704s-69.412 64.964-99.704 87.178c-51.574 37.82-76.592 42.194-90.924 42.194h-496c-44.112 0-80-35.888-80-80v-864c0-44.112 35.888-80 80-80h736c44.112 0 80 35.888 80 80v624c0 14.332-4.372 39.35-42.194 90.924zM785.374 785.374c30.7-30.7 54.8-58.398 72.58-81.374h-153.954v153.946c22.984-17.78 50.678-41.878 81.374-72.572zM896 16c0-8.672-7.328-16-16-16h-736c-8.672 0-16 7.328-16 16v864c0 8.672 7.328 16 16 16 0 0 495.956 0.002 496 0v-224c0-17.672 14.326-32 32-32h224v-624zM736 128h-448c-17.672 0-32 14.326-32 32s14.328 32 32 32h448c17.674 0 32-14.326 32-32s-14.326-32-32-32zM736 256h-448c-17.672 0-32 14.326-32 32s14.328 32 32 32h448c17.674 0 32-14.326 32-32s-14.326-32-32-32zM736 384h-448c-17.672 0-32 14.326-32 32s14.328 32 32 32h448c17.674 0 32-14.326 32-32s-14.326-32-32-32z" />
<glyph unicode="&#xe953;" glyph-name="calendar" d="M320 576h128v-128h-128zM512 576h128v-128h-128zM704 576h128v-128h-128zM128 192h128v-128h-128zM320 192h128v-128h-128zM512 192h128v-128h-128zM320 384h128v-128h-128zM512 384h128v-128h-128zM704 384h128v-128h-128zM128 384h128v-128h-128zM832 960v-64h-128v64h-448v-64h-128v64h-128v-1024h960v1024h-128zM896 0h-832v704h832v-704z" />
<glyph unicode="&#xe972;" glyph-name="users" horiz-adv-x="1152" d="M768 189.388v52.78c70.498 39.728 128 138.772 128 237.832 0 159.058 0 288-192 288s-192-128.942-192-288c0-99.060 57.502-198.104 128-237.832v-52.78c-217.102-17.748-384-124.42-384-253.388h896c0 128.968-166.898 235.64-384 253.388zM327.196 164.672c55.31 36.15 124.080 63.636 199.788 80.414-15.054 17.784-28.708 37.622-40.492 59.020-30.414 55.234-46.492 116.058-46.492 175.894 0 86.042 0 167.31 30.6 233.762 29.706 64.504 83.128 104.496 159.222 119.488-16.914 76.48-61.94 126.75-181.822 126.75-192 0-192-128.942-192-288 0-99.060 57.502-198.104 128-237.832v-52.78c-217.102-17.748-384-124.42-384-253.388h279.006c14.518 12.91 30.596 25.172 48.19 36.672z" />
</font></defs></svg>